{"tracks":{"href":"https://api.spotify.com/v1/search?offset=0&limit=2&query=Darkness%20The%20Police&type=track","limit":2,"next":"https://api.spotify.com/v1/search?offset=2&limit=2&query=Darkness%20The%20Police&type=track","offset":0,"previous":null,"total":1000,"items":[{"album":{"album_type":"album","artists":[{"external_urls":{"spotify":"https://open.spotify.com/artist/3hv9jJF3adDNsBSIQDqcjp"},"href":"https://api.spotify.com/v1/artists/3hv9jJF3adDNsBSIQDqcjp","id":"3hv9jJF3adDNsBSIQDqcjp","name":"Mark Ronson","type":"artist","uri":"spotify:artist:3hv9jJF3adDNsBSIQDqcjp"}],"available_markets":["AR","AU","AT","BE","BO","BR","BG","CA","CL","CO","CR","CY","CZ","DK","DO","DE","EC","EE","SV","FI","FR","GR","GT","HN","HK","HU","IS","IE","IT","LV","LT","LU","MY","MT","MX","NL","NZ","NI","NO","PA","PY","PE","PH","PL","PT","SG","SK","ES","SE","CH","TW","TR","UY","US","GB","AD","LI","MC","ID","JP","TH","VN","RO","IL","ZA","SA","AE","BH","QA","OM","KW","EG","MA","DZ","TN","LB","JO","PS","IN","BY","KZ","MD","UA","AL","BA","HR","ME","MK","RS","SI","KR","BD","PK","LK","GH","KE","NG","TZ","UG","AG","AM","BS","BB","BZ","BT","BW","BF","CV","CW","DM","FJ","GM","GE","GD","GW","GY","HT","JM","KI","LS","LR","MW","MV","ML","MH","FM","NA","NR","NE","PW","PG","PR","WS","SM","ST","SN","SC","SL","SB","KN","LC","VC","SR","TL","TO","TT","TV","VU","AZ","BN","BI","KH","CM","TD","KM","GQ","SZ","GA","GN","KG","LA","MO","MR","MN","NP","RW","TG","UZ","ZW","BJ","MG","MU","MZ","AO","CI","DJ","ZM","CD","CG","IQ","LY","TJ","VE","ET","XK"],"external_urls":{"spotify":"https://open.spotify.com/album/3vLaOYCNCzngDf8QdBg2V1"},"href":"https://api.spotify.com/v1/albums/3vLaOYCNCzngDf8QdBg2V1","id":"3vLaOYCNCzngDf8QdBg2V1","images":[{"height":640,"width":640,"url":"https://i.scdn.co/image/ab67616d0000b2739860171ddfee17f77a570cf6"},{"height":300,"width":300,"url":"https://i.scdn.co/image/ab67616d00001e029860171ddfee17f77a570cf6"},{"height":64,"width":64,"url":"https://i.scdn.co/image/ab67616d000048519860171ddfee17f77a570cf6"}],"is_playable":true,"name":"Uptown Special","release_date":"2015-01-12","release_date_precision":"day","total_tracks":11,"type":"album","uri":"spotify:album:3vLaOYCNCzngDf8QdBg2V1"},"artists":[{"external_urls":{"spotify":"https://open.spotify.com/artist/3hv9jJF3adDNsBSIQDqcjp"},"href":"https://api.spotify.com/v1/artists/3hv9jJF3adDNsBSIQDqcjp","id":"3hv9jJF3adDNsBSIQDqcjp","name":"Mark Ronson","type":"artist","uri":"spotify:artist:3hv9jJF3adDNsBSIQDqcjp"},{"external_urls":{"spotify":"https://open.spotify.com/artist/0du5cEVh5yTK9QJze8zA0C"},"href":"https://api.spotify.com/v1/artists/0du5cEVh5yTK9QJze8zA0C","id":"0du5cEVh5yTK9QJze8zA0C","name":"Bruno Mars","type":"artist","uri":"spotify:artist:0du5cEVh5yTK9QJze8zA0C"}],"available_markets":["AR","AU","AT","BE","BO","BR","BG","CA","CL","CO","CR","CY","CZ","DK","DO","DE","EC","EE","SV","FI","FR","GR","GT","HN","HK","HU","IS","IE","IT","LV","LT","LU","MY","MT","MX","NL","NZ","NI","NO","PA","PY","PE","PH","PL","PT","SG","SK","ES","SE","CH","TW","TR","UY","US","GB","AD","LI","MC","ID","JP","TH","VN","RO","IL","ZA","SA","AE","BH","QA","OM","KW","EG","MA","DZ","TN","LB","JO","PS","IN","BY","KZ","MD","UA","AL","BA","HR","ME","MK","RS","SI","KR","BD","PK","LK","GH","KE","NG","TZ","UG","AG","AM","BS","BB","BZ","BT","BW","BF","CV","CW","DM","FJ","GM","GE","GD","GW","GY","HT","JM","KI","LS","LR","MW","MV","ML","MH","FM","NA","NR","NE","PW","PG","PR","WS","SM","ST","SN","SC","SL","SB","KN","LC","VC","SR","TL","TO","TT","TV","VU","AZ","BN","BI","KH","CM","TD","KM","GQ","SZ","GA","GN","KG","LA","MO","MR","MN","NP","RW","TG","UZ","ZW","BJ","MG","MU","MZ","AO","CI","DJ","ZM","CD","CG","IQ","LY","TJ","VE","ET","XK"],"disc_number":1,"duration_ms":269658,"explicit":false,"external_ids":{"isrc":"GBARL1401524"},"external_urls":{"spotify":"https://open.spotify.com/track/32OlwWuMpZ6b0aN2RZOeMS"},"href":"https://api.spotify.com/v1/tracks/32OlwWuMpZ6b0aN2RZOeMS","id":"32OlwWuMpZ6b0aN2RZOeMS","is_local":false,"is_playable":true,"name":"Uptown Funk (feat. Bruno Mars)","popularity":86,"preview_url":null,"track_number":4,"type":"track","uri":"spotify:track:32OlwWuMpZ6b0aN2RZOeMS"},{"album":{"album_type":"album","artists":[{"external_urls":{"spotify":"https://open.spotify.com/artist/5NGO30tJxFlKixkPSgXcFE"},"href":"https://api.spotify.com/v1/artists/5NGO30tJxFlKixkPSgXcFE","id":"5NGO30tJxFlKixkPSgXcFE","name":"The Police","type":"artist","uri":"spotify:artist:5NGO30tJxFlKixkPSgXcFE"}],"available_markets":["AR","AU","AT","BE","BO","BR","BG","CA","CL","CO","CR","CY","CZ","DK","DO","DE","EC","EE","SV","FI","FR","GR","GT","HN","HK","HU","IS","IE","IT","LV","LT","LU","MY","MT","MX","NL","NZ","NI","NO","PA","PY","PE","PH","PL","PT","SG","SK","ES","SE","CH","TW","TR","UY","US","GB","AD","LI","MC","ID","JP","TH","VN","RO","IL","ZA","SA","AE","BH","QA","OM","KW","EG","MA","DZ","TN","LB","JO","PS","IN","KZ","MD","UA","AL","BA","HR","ME","MK","RS","SI","KR","BD","PK","LK","GH","KE","NG","TZ","UG","AG","AM","BS","BB","BZ","BT","BW","CV","CW","DM","FJ","GM","GE","GD","GW","GY","HT","JM","KI","LS","LR","MW","MV","ML","MH","FM","NA","NR","NE","PW","PG","WS","SM","ST","SN","SC","SL","SB","KN","LC","VC","SR","TL","TO","TT","TV","VU","AZ","BI","KH","CM","TD","KM","GQ","SZ","GA","GN","KG","LA","MO","MR","MN","RW","TG","ZW","BJ","MG","MU","MZ","AO","CI","DJ","ZM","CD","CG","IQ","LY","TJ","VE","ET","XK"],"external_urls":{"spotify":"https://open.spotify.com/album/5jkwdY6jS1Hzi8epr6HW7h"},"href":"https://api.spotify.com/v1/albums/5jkwdY6jS1Hzi8epr6HW7h","id":"5jkwdY6jS1Hzi8epr6HW7h","images":[{"height":640,"width":640,"url":"https://i.scdn.co/image/ab67616d0000b273b7879980ef2ea7ac1cc29316"},{"height":300,"width":300,"url":"https://i.scdn.co/image/ab67616d00001e02b7879980ef2ea7ac1cc29316"},{"height":64,"width":64,"url":"https://i.scdn.co/image/ab67616d00004851b7879980ef2ea7ac1cc29316"}],"is_playable":true,"name":"Ghost In The Machine (Remastered 2003)","release_date":"1981-10-02","release_date_precision":"day","total_tracks":11,"type":"album","uri":"spotify:album:5jkwdY6jS1Hzi8epr6HW7h"},"artists":[{"external_urls":{"spotify":"https://open.spotify.com/artist/5NGO30tJxFlKixkPSgXcFE"},"href":"https://api.spotify.com/v1/artists/5NGO30tJxFlKixkPSgXcFE","id":"5NGO30tJxFlKixkPSgXcFE","name":"The Police","type":"artist","uri":"spotify:artist:5NGO30tJxFlKixkPSgXcFE"}],"available_markets":["AR","AU","AT","BE","BO","BR","BG","CA","CL","CO","CR","CY","CZ","DK","DO","DE","EC","EE","SV","FI","FR","GR","GT","HN","HK","HU","IS","IE","IT","LV","LT","LU","MY","MT","MX","NL","NZ","NI","NO","PA","PY","PE","PH","PL","PT","SG","SK","ES","SE","CH","TW","TR","UY","US","GB","AD","LI","MC","ID","JP","TH","VN","RO","IL","ZA","SA","AE","BH","QA","OM","KW","EG","MA","DZ","TN","LB","JO","PS","IN","KZ","MD","UA","AL","BA","HR","ME","MK","RS","SI","KR","BD","PK","LK","GH","KE","NG","TZ","UG","AG","AM","BS","BB","BZ","BT","BW","CV","CW","DM","FJ","GM","GE","GD","GW","GY","HT","JM","KI","LS","LR","MW","MV","ML","MH","FM","NA","NR","NE","PW","PG","WS","SM","ST","SN","SC","SL","SB","KN","LC","VC","SR","TL","TO","TT","TV","VU","AZ","BI","KH","CM","TD","KM","GQ","SZ","GA","GN","KG","LA","MO","MR","MN","RW","TG","ZW","BJ","MG","MU","MZ","AO","CI","DJ","ZM","CD","CG","IQ","LY","TJ","VE","ET","XK"],"disc_number":1,"duration_ms":193866,"explicit":false,"external_ids":{"isrc":"GBAAM0201136"},"external_urls":{"spotify":"https://open.spotify.com/track/2zGmWtewQWYWMZMptybOMg"},"href":"https://api.spotify.com/v1/tracks/2zGmWtewQWYWMZMptybOMg","id":"2zGmWtewQWYWMZMptybOMg","is_local":false,"is_playable":true,"name":"Darkness","popularity":45,"preview_url":null,"track_number":11,"type":"track","uri":"spotify:track:2zGmWtewQWYWMZMptybOMg"}]}}